@startuml
skinparam componentStyle rectangle

component Authority [
Authority
' - A, authority, 10.0.0.0
Has the records:
- PKEY, n1, 1111
- PKEY, n2, 2221
- TXT, mixnet, "n1, n2"

Can query the records (in its root zone):
' - authority.root -> 10.0.0.0
' - n1.root -> A, n1, 10.0.0.1
- n1.root -> TXT, n1, email=root@n1.pep.example;layer=1;openpgp=AAAA
- n2.root -> A, n2, 10.0.0.2
- mixnet.root -> TXT, mixnet, "n1,n2"
]

component N1 [
N1
Has the records:
' - N1, n1, 10.0.0.1
- PKEY, authority, 0000
- TXT, n1, email=root@n1.pep.example;layer=1;openpgp=AAAA

Can query the records (in its root zone):
' - n1.root -> A, n1, 10.0.0.1
- n1.root -> TXT, n1, email=root@n1.pep.example;layer=1;openpgp=AAAA
' - authority.root -> A, authority, 10.0.0.0
- mixnet.authority.root -> TXT, mixnet, "n1,n2"
' - n2.authority.root -> A, n2, 10.0.0.2
- n2.authority.root -> TXT, n2, email=root@n2.pep.example;layer=1;openpgp=BBBB
]

component N2 [
N2
Has the records:
' - A, n2, 10.0.0.2
- PKEY, authority, 0000
- TXT, n2, email=root@n2.pep.example;layer=1;openpgp=BBBB

Can query the records (in its root zone):
' - n2.root -> A, n2, 10.0.0.1
- n2.root -> TXT, n2, email=root@n2.pep.example;layer=1;openpgp=BBBB
' - authority.root -> A, authority, 10.0.0.0
- mixnet.authority.root -> TXT, mixnet, "n1,n2"
' - n1.authority.root -> A, n2, 10.0.0.1
- n1.authority.root -> TXT, n1, email=root@n1.pep.example;layer=1;openpgp=AAAA
]

[Authority] --> [N1] : n1.root
[Authority] --> [N2] : n2.root

[N1] --> [Authority] : *.authority.root
[N2] --> [Authority] : *.authority.root

@enduml
